('D:\\pro\\py\\mbed_rename\\build\\rename_ui_remake\\PKG-00.pkg',
 {'BINARY': 1,
  'DATA': 1,
  'EXECUTABLE': 1,
  'EXTENSION': 1,
  'PYMODULE': 1,
  'PYSOURCE': 1,
  'PYZ': 0},
 [('PYZ-00.pyz',
   'D:\\pro\\py\\mbed_rename\\build\\rename_ui_remake\\PYZ-00.pyz',
   'PYZ'),
  ('struct', 'c:\\programdata\\anaconda3\\lib\\struct.pyo', 'PYMODULE'),
  ('pyimod01_os_path',
   'c:\\programdata\\anaconda3\\lib\\site-packages\\PyInstaller\\loader\\pyimod01_os_path.pyc',
   'PYMODULE'),
  ('pyimod02_archive',
   'c:\\programdata\\anaconda3\\lib\\site-packages\\PyInstaller\\loader\\pyimod02_archive.pyc',
   'PYMODULE'),
  ('pyimod03_importers',
   'c:\\programdata\\anaconda3\\lib\\site-packages\\PyInstaller\\loader\\pyimod03_importers.pyc',
   'PYMODULE'),
  ('pyiboot01_bootstrap',
   'c:\\programdata\\anaconda3\\lib\\site-packages\\PyInstaller\\loader\\pyiboot01_bootstrap.py',
   'PYSOURCE'),
  ('pyi_rth_qt5',
   'c:\\programdata\\anaconda3\\lib\\site-packages\\PyInstaller\\loader\\rthooks\\pyi_rth_qt5.py',
   'PYSOURCE'),
  ('rename_ui_remake',
   'D:\\pro\\py\\mbed_rename\\rename_ui_remake.py',
   'PYSOURCE'),
  ('api-ms-win-crt-math-l1-1-0.dll',
   'c:\\programdata\\anaconda3\\api-ms-win-crt-math-l1-1-0.dll',
   'BINARY'),
  ('python37.dll', 'c:\\programdata\\anaconda3\\python37.dll', 'BINARY'),
  ('api-ms-win-crt-stdio-l1-1-0.dll',
   'c:\\programdata\\anaconda3\\api-ms-win-crt-stdio-l1-1-0.dll',
   'BINARY'),
  ('api-ms-win-crt-heap-l1-1-0.dll',
   'c:\\programdata\\anaconda3\\api-ms-win-crt-heap-l1-1-0.dll',
   'BINARY'),
  ('api-ms-win-crt-locale-l1-1-0.dll',
   'c:\\programdata\\anaconda3\\api-ms-win-crt-locale-l1-1-0.dll',
   'BINARY'),
  ('VCRUNTIME140.dll',
   'c:\\programdata\\anaconda3\\VCRUNTIME140.dll',
   'BINARY'),
  ('api-ms-win-crt-runtime-l1-1-0.dll',
   'c:\\programdata\\anaconda3\\api-ms-win-crt-runtime-l1-1-0.dll',
   'BINARY'),
  ('ucrtbase.dll', 'c:\\programdata\\anaconda3\\ucrtbase.dll', 'BINARY'),
  ('api-ms-win-crt-filesystem-l1-1-0.dll',
   'c:\\programdata\\anaconda3\\api-ms-win-crt-filesystem-l1-1-0.dll',
   'BINARY'),
  ('api-ms-win-crt-process-l1-1-0.dll',
   'c:\\programdata\\anaconda3\\api-ms-win-crt-process-l1-1-0.dll',
   'BINARY'),
  ('api-ms-win-crt-time-l1-1-0.dll',
   'c:\\programdata\\anaconda3\\api-ms-win-crt-time-l1-1-0.dll',
   'BINARY'),
  ('api-ms-win-crt-convert-l1-1-0.dll',
   'c:\\programdata\\anaconda3\\api-ms-win-crt-convert-l1-1-0.dll',
   'BINARY'),
  ('api-ms-win-crt-environment-l1-1-0.dll',
   'c:\\programdata\\anaconda3\\api-ms-win-crt-environment-l1-1-0.dll',
   'BINARY'),
  ('api-ms-win-crt-string-l1-1-0.dll',
   'c:\\programdata\\anaconda3\\api-ms-win-crt-string-l1-1-0.dll',
   'BINARY'),
  ('api-ms-win-crt-conio-l1-1-0.dll',
   'c:\\programdata\\anaconda3\\api-ms-win-crt-conio-l1-1-0.dll',
   'BINARY'),
  ('api-ms-win-core-synch-l1-2-0.dll',
   'c:\\programdata\\anaconda3\\api-ms-win-core-synch-l1-2-0.dll',
   'BINARY'),
  ('api-ms-win-core-handle-l1-1-0.dll',
   'c:\\programdata\\anaconda3\\api-ms-win-core-handle-l1-1-0.dll',
   'BINARY'),
  ('api-ms-win-core-file-l2-1-0.dll',
   'c:\\programdata\\anaconda3\\api-ms-win-core-file-l2-1-0.dll',
   'BINARY'),
  ('api-ms-win-core-console-l1-1-0.dll',
   'c:\\programdata\\anaconda3\\api-ms-win-core-console-l1-1-0.dll',
   'BINARY'),
  ('api-ms-win-core-processenvironment-l1-1-0.dll',
   'c:\\programdata\\anaconda3\\api-ms-win-core-processenvironment-l1-1-0.dll',
   'BINARY'),
  ('api-ms-win-core-profile-l1-1-0.dll',
   'c:\\programdata\\anaconda3\\api-ms-win-core-profile-l1-1-0.dll',
   'BINARY'),
  ('api-ms-win-core-debug-l1-1-0.dll',
   'c:\\programdata\\anaconda3\\api-ms-win-core-debug-l1-1-0.dll',
   'BINARY'),
  ('api-ms-win-core-sysinfo-l1-1-0.dll',
   'c:\\programdata\\anaconda3\\api-ms-win-core-sysinfo-l1-1-0.dll',
   'BINARY'),
  ('api-ms-win-core-interlocked-l1-1-0.dll',
   'c:\\programdata\\anaconda3\\api-ms-win-core-interlocked-l1-1-0.dll',
   'BINARY'),
  ('api-ms-win-core-rtlsupport-l1-1-0.dll',
   'c:\\programdata\\anaconda3\\api-ms-win-core-rtlsupport-l1-1-0.dll',
   'BINARY'),
  ('api-ms-win-core-memory-l1-1-0.dll',
   'c:\\programdata\\anaconda3\\api-ms-win-core-memory-l1-1-0.dll',
   'BINARY'),
  ('api-ms-win-core-file-l1-1-0.dll',
   'c:\\programdata\\anaconda3\\api-ms-win-core-file-l1-1-0.dll',
   'BINARY'),
  ('api-ms-win-core-errorhandling-l1-1-0.dll',
   'c:\\programdata\\anaconda3\\api-ms-win-core-errorhandling-l1-1-0.dll',
   'BINARY'),
  ('api-ms-win-core-string-l1-1-0.dll',
   'c:\\programdata\\anaconda3\\api-ms-win-core-string-l1-1-0.dll',
   'BINARY'),
  ('api-ms-win-core-util-l1-1-0.dll',
   'c:\\programdata\\anaconda3\\api-ms-win-core-util-l1-1-0.dll',
   'BINARY'),
  ('api-ms-win-core-processthreads-l1-1-1.dll',
   'c:\\programdata\\anaconda3\\api-ms-win-core-processthreads-l1-1-1.dll',
   'BINARY'),
  ('api-ms-win-core-file-l1-2-0.dll',
   'c:\\programdata\\anaconda3\\api-ms-win-core-file-l1-2-0.dll',
   'BINARY'),
  ('api-ms-win-core-libraryloader-l1-1-0.dll',
   'c:\\programdata\\anaconda3\\api-ms-win-core-libraryloader-l1-1-0.dll',
   'BINARY'),
  ('api-ms-win-core-datetime-l1-1-0.dll',
   'c:\\programdata\\anaconda3\\api-ms-win-core-datetime-l1-1-0.dll',
   'BINARY'),
  ('api-ms-win-core-localization-l1-2-0.dll',
   'c:\\programdata\\anaconda3\\api-ms-win-core-localization-l1-2-0.dll',
   'BINARY'),
  ('api-ms-win-core-heap-l1-1-0.dll',
   'c:\\programdata\\anaconda3\\api-ms-win-core-heap-l1-1-0.dll',
   'BINARY'),
  ('api-ms-win-core-namedpipe-l1-1-0.dll',
   'c:\\programdata\\anaconda3\\api-ms-win-core-namedpipe-l1-1-0.dll',
   'BINARY'),
  ('api-ms-win-core-timezone-l1-1-0.dll',
   'c:\\programdata\\anaconda3\\api-ms-win-core-timezone-l1-1-0.dll',
   'BINARY'),
  ('api-ms-win-core-synch-l1-1-0.dll',
   'c:\\programdata\\anaconda3\\api-ms-win-core-synch-l1-1-0.dll',
   'BINARY'),
  ('api-ms-win-core-processthreads-l1-1-0.dll',
   'c:\\programdata\\anaconda3\\api-ms-win-core-processthreads-l1-1-0.dll',
   'BINARY'),
  ('PyQt5\\Qt\\plugins\\platforms\\qwindows.dll',
   'C:\\programdata\\anaconda3\\lib\\site-packages\\PyQt5\\Qt\\plugins\\platforms\\qwindows.dll',
   'BINARY'),
  ('PyQt5\\Qt\\plugins\\platforms\\qoffscreen.dll',
   'C:\\programdata\\anaconda3\\lib\\site-packages\\PyQt5\\Qt\\plugins\\platforms\\qoffscreen.dll',
   'BINARY'),
  ('PyQt5\\Qt\\plugins\\imageformats\\qgif.dll',
   'C:\\programdata\\anaconda3\\lib\\site-packages\\PyQt5\\Qt\\plugins\\imageformats\\qgif.dll',
   'BINARY'),
  ('PyQt5\\Qt\\plugins\\imageformats\\qtiff.dll',
   'C:\\programdata\\anaconda3\\lib\\site-packages\\PyQt5\\Qt\\plugins\\imageformats\\qtiff.dll',
   'BINARY'),
  ('PyQt5\\Qt\\plugins\\imageformats\\qjpeg.dll',
   'C:\\programdata\\anaconda3\\lib\\site-packages\\PyQt5\\Qt\\plugins\\imageformats\\qjpeg.dll',
   'BINARY'),
  ('PyQt5\\Qt\\plugins\\imageformats\\qico.dll',
   'C:\\programdata\\anaconda3\\lib\\site-packages\\PyQt5\\Qt\\plugins\\imageformats\\qico.dll',
   'BINARY'),
  ('PyQt5\\Qt\\plugins\\imageformats\\qwbmp.dll',
   'C:\\programdata\\anaconda3\\lib\\site-packages\\PyQt5\\Qt\\plugins\\imageformats\\qwbmp.dll',
   'BINARY'),
  ('PyQt5\\Qt\\plugins\\iconengines\\qsvgicon.dll',
   'C:\\programdata\\anaconda3\\lib\\site-packages\\PyQt5\\Qt\\plugins\\iconengines\\qsvgicon.dll',
   'BINARY'),
  ('PyQt5\\Qt\\plugins\\platformthemes\\qxdgdesktopportal.dll',
   'C:\\programdata\\anaconda3\\lib\\site-packages\\PyQt5\\Qt\\plugins\\platformthemes\\qxdgdesktopportal.dll',
   'BINARY'),
  ('PyQt5\\Qt\\plugins\\styles\\qwindowsvistastyle.dll',
   'C:\\programdata\\anaconda3\\lib\\site-packages\\PyQt5\\Qt\\plugins\\styles\\qwindowsvistastyle.dll',
   'BINARY'),
  ('PyQt5\\Qt\\plugins\\imageformats\\qtga.dll',
   'C:\\programdata\\anaconda3\\lib\\site-packages\\PyQt5\\Qt\\plugins\\imageformats\\qtga.dll',
   'BINARY'),
  ('PyQt5\\Qt\\plugins\\platforms\\qminimal.dll',
   'C:\\programdata\\anaconda3\\lib\\site-packages\\PyQt5\\Qt\\plugins\\platforms\\qminimal.dll',
   'BINARY'),
  ('PyQt5\\Qt\\plugins\\platforms\\qwebgl.dll',
   'C:\\programdata\\anaconda3\\lib\\site-packages\\PyQt5\\Qt\\plugins\\platforms\\qwebgl.dll',
   'BINARY'),
  ('PyQt5\\Qt\\bin\\libGLESv2.dll',
   'C:\\programdata\\anaconda3\\lib\\site-packages\\PyQt5\\Qt\\bin\\libGLESv2.dll',
   'BINARY'),
  ('PyQt5\\Qt\\plugins\\imageformats\\qicns.dll',
   'C:\\programdata\\anaconda3\\lib\\site-packages\\PyQt5\\Qt\\plugins\\imageformats\\qicns.dll',
   'BINARY'),
  ('PyQt5\\Qt\\bin\\libEGL.dll',
   'C:\\programdata\\anaconda3\\lib\\site-packages\\PyQt5\\Qt\\bin\\libEGL.dll',
   'BINARY'),
  ('PyQt5\\Qt\\bin\\d3dcompiler_47.dll',
   'C:\\programdata\\anaconda3\\lib\\site-packages\\PyQt5\\Qt\\bin\\d3dcompiler_47.dll',
   'BINARY'),
  ('PyQt5\\Qt\\bin\\opengl32sw.dll',
   'C:\\programdata\\anaconda3\\lib\\site-packages\\PyQt5\\Qt\\bin\\opengl32sw.dll',
   'BINARY'),
  ('PyQt5\\Qt\\plugins\\imageformats\\qsvg.dll',
   'C:\\programdata\\anaconda3\\lib\\site-packages\\PyQt5\\Qt\\plugins\\imageformats\\qsvg.dll',
   'BINARY'),
  ('PyQt5\\Qt\\plugins\\imageformats\\qwebp.dll',
   'C:\\programdata\\anaconda3\\lib\\site-packages\\PyQt5\\Qt\\plugins\\imageformats\\qwebp.dll',
   'BINARY'),
  ('_ssl', 'c:\\programdata\\anaconda3\\DLLs\\_ssl.pyd', 'EXTENSION'),
  ('_queue', 'c:\\programdata\\anaconda3\\DLLs\\_queue.pyd', 'EXTENSION'),
  ('win32api',
   'c:\\programdata\\anaconda3\\lib\\site-packages\\win32\\win32api.pyd',
   'EXTENSION'),
  ('win32evtlog',
   'c:\\programdata\\anaconda3\\lib\\site-packages\\win32\\win32evtlog.pyd',
   'EXTENSION'),
  ('_ctypes', 'c:\\programdata\\anaconda3\\DLLs\\_ctypes.pyd', 'EXTENSION'),
  ('pyexpat', 'c:\\programdata\\anaconda3\\DLLs\\pyexpat.pyd', 'EXTENSION'),
  ('unicodedata',
   'c:\\programdata\\anaconda3\\DLLs\\unicodedata.pyd',
   'EXTENSION'),
  ('_hashlib', 'c:\\programdata\\anaconda3\\DLLs\\_hashlib.pyd', 'EXTENSION'),
  ('select', 'c:\\programdata\\anaconda3\\DLLs\\select.pyd', 'EXTENSION'),
  ('_bz2', 'c:\\programdata\\anaconda3\\DLLs\\_bz2.pyd', 'EXTENSION'),
  ('_lzma', 'c:\\programdata\\anaconda3\\DLLs\\_lzma.pyd', 'EXTENSION'),
  ('_socket', 'c:\\programdata\\anaconda3\\DLLs\\_socket.pyd', 'EXTENSION'),
  ('PyQt5.QtWidgets',
   'c:\\programdata\\anaconda3\\lib\\site-packages\\PyQt5\\QtWidgets.pyd',
   'EXTENSION'),
  ('PyQt5.QtGui',
   'c:\\programdata\\anaconda3\\lib\\site-packages\\PyQt5\\QtGui.pyd',
   'EXTENSION'),
  ('PyQt5.QtCore',
   'c:\\programdata\\anaconda3\\lib\\site-packages\\PyQt5\\QtCore.pyd',
   'EXTENSION'),
  ('PyQt5.sip',
   'c:\\programdata\\anaconda3\\lib\\site-packages\\PyQt5\\sip.pyd',
   'EXTENSION'),
  ('sip',
   'c:\\programdata\\anaconda3\\lib\\site-packages\\sip.pyd',
   'EXTENSION'),
  ('Qt5Core.dll',
   'c:\\programdata\\anaconda3\\lib\\site-packages\\PyQt5\\Qt\\bin\\qt5core.dll',
   'BINARY'),
  ('MSVCP140.dll', 'c:\\programdata\\anaconda3\\msvcp140.dll', 'BINARY'),
  ('api-ms-win-crt-utility-l1-1-0.dll',
   'c:\\programdata\\anaconda3\\api-ms-win-crt-utility-l1-1-0.dll',
   'BINARY'),
  ('Qt5Gui.dll',
   'c:\\programdata\\anaconda3\\lib\\site-packages\\PyQt5\\Qt\\bin\\qt5gui.dll',
   'BINARY'),
  ('Qt5Svg.dll',
   'c:\\programdata\\anaconda3\\lib\\site-packages\\PyQt5\\Qt\\bin\\qt5svg.dll',
   'BINARY'),
  ('Qt5DBus.dll',
   'c:\\programdata\\anaconda3\\lib\\site-packages\\PyQt5\\Qt\\bin\\qt5dbus.dll',
   'BINARY'),
  ('Qt5Widgets.dll',
   'c:\\programdata\\anaconda3\\lib\\site-packages\\PyQt5\\Qt\\bin\\qt5widgets.dll',
   'BINARY'),
  ('Qt5WebSockets.dll',
   'c:\\programdata\\anaconda3\\lib\\site-packages\\PyQt5\\Qt\\bin\\qt5websockets.dll',
   'BINARY'),
  ('Qt5Network.dll',
   'c:\\programdata\\anaconda3\\lib\\site-packages\\PyQt5\\Qt\\bin\\qt5network.dll',
   'BINARY'),
  ('Qt5Quick.dll',
   'c:\\programdata\\anaconda3\\lib\\site-packages\\PyQt5\\Qt\\bin\\qt5quick.dll',
   'BINARY'),
  ('libGLESv2.dll',
   'C:\\programdata\\anaconda3\\lib\\site-packages\\PyQt5\\Qt\\bin\\libGLESv2.dll',
   'BINARY'),
  ('libssl-1_1-x64.dll',
   'c:\\programdata\\anaconda3\\lib\\site-packages\\PyQt5\\Qt\\bin\\libssl-1_1-x64.dll',
   'BINARY'),
  ('libcrypto-1_1-x64.dll',
   'c:\\programdata\\anaconda3\\lib\\site-packages\\PyQt5\\Qt\\bin\\libcrypto-1_1-x64.dll',
   'BINARY'),
  ('pywintypes37.dll',
   'c:\\programdata\\anaconda3\\lib\\site-packages\\win32\\pywintypes37.dll',
   'BINARY'),
  ('python3.dll', 'c:\\programdata\\anaconda3\\python3.dll', 'BINARY'),
  ('Qt5Qml.dll',
   'c:\\programdata\\anaconda3\\lib\\site-packages\\PyQt5\\Qt\\bin\\Qt5Qml.dll',
   'BINARY'),
  ('base_library.zip',
   'D:\\pro\\py\\mbed_rename\\build\\rename_ui_remake\\base_library.zip',
   'DATA'),
  ('PyQt5\\Qt\\translations\\qtbase_zh_TW.qm',
   'C:\\programdata\\anaconda3\\lib\\site-packages\\PyQt5\\Qt\\translations\\qtbase_zh_TW.qm',
   'DATA'),
  ('PyQt5\\Qt\\translations\\qtbase_he.qm',
   'C:\\programdata\\anaconda3\\lib\\site-packages\\PyQt5\\Qt\\translations\\qtbase_he.qm',
   'DATA'),
  ('PyQt5\\Qt\\translations\\qtbase_lv.qm',
   'C:\\programdata\\anaconda3\\lib\\site-packages\\PyQt5\\Qt\\translations\\qtbase_lv.qm',
   'DATA'),
  ('PyQt5\\Qt\\translations\\qtbase_da.qm',
   'C:\\programdata\\anaconda3\\lib\\site-packages\\PyQt5\\Qt\\translations\\qtbase_da.qm',
   'DATA'),
  ('PyQt5\\Qt\\translations\\qtbase_en.qm',
   'C:\\programdata\\anaconda3\\lib\\site-packages\\PyQt5\\Qt\\translations\\qtbase_en.qm',
   'DATA'),
  ('PyQt5\\Qt\\translations\\qtbase_bg.qm',
   'C:\\programdata\\anaconda3\\lib\\site-packages\\PyQt5\\Qt\\translations\\qtbase_bg.qm',
   'DATA'),
  ('PyQt5\\Qt\\translations\\qtbase_es.qm',
   'C:\\programdata\\anaconda3\\lib\\site-packages\\PyQt5\\Qt\\translations\\qtbase_es.qm',
   'DATA'),
  ('PyQt5\\Qt\\translations\\qtbase_cs.qm',
   'C:\\programdata\\anaconda3\\lib\\site-packages\\PyQt5\\Qt\\translations\\qtbase_cs.qm',
   'DATA'),
  ('PyQt5\\Qt\\translations\\qtbase_fi.qm',
   'C:\\programdata\\anaconda3\\lib\\site-packages\\PyQt5\\Qt\\translations\\qtbase_fi.qm',
   'DATA'),
  ('PyQt5\\Qt\\translations\\qtbase_it.qm',
   'C:\\programdata\\anaconda3\\lib\\site-packages\\PyQt5\\Qt\\translations\\qtbase_it.qm',
   'DATA'),
  ('PyQt5\\Qt\\translations\\qtbase_ja.qm',
   'C:\\programdata\\anaconda3\\lib\\site-packages\\PyQt5\\Qt\\translations\\qtbase_ja.qm',
   'DATA'),
  ('PyQt5\\Qt\\translations\\qtbase_ru.qm',
   'C:\\programdata\\anaconda3\\lib\\site-packages\\PyQt5\\Qt\\translations\\qtbase_ru.qm',
   'DATA'),
  ('PyQt5\\Qt\\translations\\qtbase_ca.qm',
   'C:\\programdata\\anaconda3\\lib\\site-packages\\PyQt5\\Qt\\translations\\qtbase_ca.qm',
   'DATA'),
  ('PyQt5\\Qt\\translations\\qtbase_de.qm',
   'C:\\programdata\\anaconda3\\lib\\site-packages\\PyQt5\\Qt\\translations\\qtbase_de.qm',
   'DATA'),
  ('PyQt5\\Qt\\translations\\qtbase_sk.qm',
   'C:\\programdata\\anaconda3\\lib\\site-packages\\PyQt5\\Qt\\translations\\qtbase_sk.qm',
   'DATA'),
  ('PyQt5\\Qt\\translations\\qtbase_fr.qm',
   'C:\\programdata\\anaconda3\\lib\\site-packages\\PyQt5\\Qt\\translations\\qtbase_fr.qm',
   'DATA'),
  ('PyQt5\\Qt\\translations\\qtbase_ar.qm',
   'C:\\programdata\\anaconda3\\lib\\site-packages\\PyQt5\\Qt\\translations\\qtbase_ar.qm',
   'DATA'),
  ('PyQt5\\Qt\\translations\\qtbase_ko.qm',
   'C:\\programdata\\anaconda3\\lib\\site-packages\\PyQt5\\Qt\\translations\\qtbase_ko.qm',
   'DATA'),
  ('PyQt5\\Qt\\translations\\qtbase_hu.qm',
   'C:\\programdata\\anaconda3\\lib\\site-packages\\PyQt5\\Qt\\translations\\qtbase_hu.qm',
   'DATA'),
  ('PyQt5\\Qt\\translations\\qtbase_pl.qm',
   'C:\\programdata\\anaconda3\\lib\\site-packages\\PyQt5\\Qt\\translations\\qtbase_pl.qm',
   'DATA'),
  ('PyQt5\\Qt\\translations\\qtbase_gd.qm',
   'C:\\programdata\\anaconda3\\lib\\site-packages\\PyQt5\\Qt\\translations\\qtbase_gd.qm',
   'DATA'),
  ('PyQt5\\Qt\\translations\\qtbase_uk.qm',
   'C:\\programdata\\anaconda3\\lib\\site-packages\\PyQt5\\Qt\\translations\\qtbase_uk.qm',
   'DATA'),
  ('rename_ui_remake.exe.manifest',
   'D:\\pro\\py\\mbed_rename\\build\\rename_ui_remake\\rename_ui_remake.exe.manifest',
   'BINARY'),
  ('pyi-windows-manifest-filename rename_ui_remake.exe.manifest',
   '',
   'OPTION')],
 False,
 False,
 False)
